Lat;Lon;Time:Lines;Brigade
52.244478;20.979429;2017-06-01 21:32:11;107;1
52.157165;21.191377;2017-06-01 21:32:13;213;3
52.232982;21.123087;2017-06-01 21:32:15;311;2
52.214012;21.153701;2017-06-01 21:32:18;213;4
52.15588;21.034926;2017-06-01 21:32:13;179;7
52.189905;21.140772;2017-06-01 21:32:13;702;1
52.223901;21.031835;2017-06-01 21:32:16;107;5
52.21582;21.046091;2017-06-01 21:32:18;108;2
52.148048;21.04254;2017-06-01 21:32:11;192;2
52.179882;21.023985;2017-06-01 21:32:11;192;4
52.228836;21.023148;2017-06-01 21:32:13;108;6
52.149468;21.045163;2017-06-01 21:32:16;192;5
52.223529;21.032135;2017-06-01 21:32:13;107;53
52.136061;21.0727;2017-06-01 21:32:08;192;8
52.179927;21.02335;2017-06-01 21:32:07;108;4
52.131179;21.06747;2017-06-01 21:32:17;192;7
52.129403;21.068055;2017-06-01 21:32:17;179;5
52.203015;20.928237;2017-06-01 21:32:14;306;4
52.238428;20.899043;2017-06-01 21:32:02;149;1
52.193517;20.859605;2017-06-01 21:32:16;194;4
52.238509;20.942838;2017-06-01 21:32:15;129;3
52.2097;20.920165;2017-06-01 21:32:15;306;51
52.260785;20.9249;2017-06-01 21:32:05;121;2
52.206933;20.914846;2017-06-01 21:32:09;194;5
52.248215;20.879022;2017-06-01 21:32:16;149;2
52.208636;20.914274;2017-06-01 21:32:10;194;3
52.150853;20.994738;2017-06-01 21:32:09;306;3
52.225023;20.930413;2017-06-01 21:32:15;194;6
52.162076;21.037053;2017-06-01 21:32:13;179;9
52.243085;21.002116;2017-06-01 21:32:11;107;56
52.180017;21.023936;2017-06-01 21:32:13;715;2
52.17999;21.018411;2017-06-01 21:32:08;218;1
52.179734;21.024231;2017-06-01 21:32:17;108;3
52.197973;21.084073;2017-06-01 21:32:13;108;5
52.153615;20.920539;2017-06-01 21:32:07;715;1
52.194044;21.020146;2017-06-01 21:32:11;218;2
52.145751;21.037519;2017-06-01 21:32:13;179;011
52.179634;21.024161;2017-06-01 21:32:14;218;4
52.270389;20.938676;2017-06-01 21:32:17;122;3
52.1003;21.046427;2017-06-01 21:32:13;739;5
52.148093;21.042515;2017-06-01 21:32:14;179;2
52.18901;21.000747;2017-06-01 21:32:14;168;2
52.156108;21.045105;2017-06-01 21:32:15;166;1
52.167048;21.018099;2017-06-01 21:32:14;739;2
52.463746;20.945129;2017-06-01 21:32:09;L-9;4
52.430419;20.709614;2017-06-01 21:32:10;L11;5
52.399658;20.938084;2017-06-01 21:32:14;L11;3
52.430453;20.709698;2017-06-01 21:32:09;L11;2
52.230469;20.984741;2017-06-01 21:32:10;178;7
52.224058;20.932126;2017-06-01 21:32:13;197;3
52.194778;20.867552;2017-06-01 21:32:15;197;2
52.188487;20.995825;2017-06-01 17:07:40;119;06
52.131256;21.060226;2017-06-01 21:32:08;179;4
52.178514;21.026563;2017-06-01 21:32:14;139;1
52.080558;21.039708;2017-06-01 21:32:16;739;4
52.158788;20.992323;2017-06-01 21:32:11;165;4
52.193386;21.085106;2017-06-01 21:32:14;159;4
52.1979;20.986592;2017-06-01 21:32:09;159;8
52.162006;21.036979;2017-06-01 21:32:10;179;8
52.156513;21.001719;2017-06-01 21:32:09;165;1
52.160847;21.017217;2017-06-01 21:32:16;739;1
52.146843;21.061896;2017-06-01 21:32:16;179;6
52.174952;21.044449;2017-06-01 21:32:17;166;6
52.161965;21.029378;2017-06-01 21:32:12;179;10
52.179182;21.023622;2017-06-01 21:32:13;165;3
52.168423;21.074671;2017-06-01 21:32:09;139;52
52.230893;20.999536;2017-06-01 21:32:08;174;314
52.100359;21.047299;2017-06-01 21:32:06;739;3
52.334898;21.033382;2017-06-01 21:32:13;104;1
52.291423;21.000599;2017-06-01 21:32:16;736;67
52.291455;21.000262;2017-06-01 21:32:15;104;3
52.175344;20.944654;2017-06-01 21:32:15;154;7
52.238581;20.898698;2017-06-01 21:32:13;122;8
52.151224;20.917525;2017-06-01 21:32:13;703;061
52.188974;20.876307;2017-06-01 21:32:14;178;3
52.264484;20.929201;2017-06-01 21:32:15;122;011
52.254022;20.898197;2017-06-01 21:32:13;122;2
52.340575;20.999606;2017-06-01 21:32:12;152;2
52.264418;21.045349;2017-06-01 15:08:20;REZ/C91BB;C91
52.258626;21.00108;2017-06-01 21:32:10;227;2
52.27258;20.968361;2017-06-01 21:32:11;110;2
52.25739;21.00393;2017-06-01 21:32:13;178;1
52.304791;20.886935;2017-06-01 21:32:08;110;3
52.280801;20.950313;2017-06-01 21:32:15;197;7
52.279888;21.054736;2017-06-01 21:32:09;120;3
52.275751;20.960729;2017-06-01 21:32:12;110;1
52.260404;21.032093;2017-06-01 21:32:16;166;4
52.340113;21.048713;2017-06-01 21:32:07;134;3
52.321859;20.956572;2017-06-01 21:32:11;516;202
52.271696;21.045798;2017-06-01 21:32:14;156;5
52.268434;21.072283;2017-06-01 21:32:12;156;3
52.291344;21.000765;2017-06-01 21:32:13;240;2
52.192422;20.868635;2017-06-01 21:32:15;197;10
52.219076;20.973212;2017-06-01 21:32:11;154;6
52.200536;20.875722;2017-06-01 21:32:12;197;1
52.205634;20.884292;2017-06-01 21:32:15;194;08
52.107579;20.836103;2017-06-01 21:32:12;711;063
52.258277;20.898229;2017-06-01 21:32:14;154;3
52.258029;20.897991;2017-06-01 21:32:11;154;4
52.239875;20.91913;2017-06-01 21:32:17;154;5
52.19012;20.900709;2017-06-01 21:32:09;178;8
52.3379021;21.119526;2017-06-01 21:32:18;L40;1
52.238964;20.944656;2017-06-01 21:32:14;154;1
52.181067;20.949435;2017-06-01 21:32:10;154;09
52.204754;20.915535;2017-06-01 21:32:14;178;9
52.249803;20.898328;2017-06-01 21:32:13;122;7
52.202849;20.969055;2017-06-01 21:32:13;154;8
52.169895;21.242075;2017-06-01 21:32:14;115;4
52.210528;21.169198;2017-06-01 21:32:02;115;3
52.244703;21.08697;2017-06-01 21:32:06;183;07
52.242468;21.101122;2017-06-01 21:32:14;183;4
52.255698;21.156943;2017-06-01 21:32:05;183;2
52.159457;21.204633;2017-06-01 21:32:10;146;1
52.220368;21.088168;2017-06-01 21:32:07;146;4
52.248715;21.052205;2017-06-01 21:32:17;202;3
52.185363;21.187982;2017-06-01 21:32:17;115;5
52.250172;21.052085;2017-06-01 21:32:05;202;2
52.197047;21.135703;2017-06-01 21:32:15;147;3
52.252828;21.050933;2017-06-01 21:32:14;147;2
52.257072;21.15644;2017-06-01 21:32:09;115;1
52.183955;21.188775;2017-06-01 21:32:16;213;2
52.238335;21.147485;2017-06-01 21:32:07;173;4
52.233013;21.11388;2017-06-01 21:32:18;522;284
52.233166;21.117286;2017-06-01 14:08:19;REZ;C93
52.222123;21.102452;2017-06-01 21:32:13;117;4
52.243383;20.966342;2017-06-01 21:31:41;102;6
52.247275;21.223258;2017-06-01 21:32:09;198;1
52.263883;21.047823;2017-06-01 21:32:17;N02;150
52.259229;20.994988;2017-06-01 21:32:11;221;1
52.288147;20.93511;2017-06-01 21:32:09;303;1
52.131136;21.066454;2017-06-01 21:32:17;166;09
52.254495;21.035378;2017-06-01 21:32:13;338;2
52.316883;20.952304;2017-06-01 21:32:14;152;1
52.299989;21.032366;2017-06-01 21:32:12;104;2
52.266255;21.069398;2017-06-01 21:32:15;338;4
52.278427;20.956295;2017-06-01 21:32:18;156;6
52.322903;20.971042;2017-06-01 21:32:16;152;3
52.322261;21.07438;2017-06-01 21:32:13;120;4
52.271874;20.968347;2017-06-01 21:32:14;134;1
52.25338;21.03595;2017-06-01 21:32:17;262;2
52.191329;20.995504;2017-06-01 21:32:18;168;1
52.248573;21.10736;2017-06-01 21:32:12;102;3
52.219196;21.243;2017-06-01 21:32:15;173;012
52.244666;21.088203;2017-06-01 21:32:14;722;61
52.217711;21.242986;2017-06-01 21:32:13;147;4
52.216967;21.098534;2017-06-01 21:32:13;213;1
52.222902;21.248257;2017-06-01 21:32:15;720;054
52.212289;21.10436;2017-06-01 21:32:15;147;5
52.256173;21.156545;2017-06-01 21:32:16;115;2
52.253208;21.051985;2017-06-01 21:32:17;147;1
52.222723;21.01174;2017-06-01 21:32:13;159;2
52.221695;21.243297;2017-06-01 21:32:13;198;4
52.228914;21.005217;2017-06-01 21:32:17;525;207
52.223538;20.995419;2017-06-01 21:32:08;159;6
52.199418;21.37794;2017-06-01 21:32:13;730;01
52.250342;21.05274;2017-06-01 21:32:15;173;1
52.248048;21.19547;2017-06-01 21:32:07;173;9
52.250433;21.082547;2017-06-01 21:32:17;173;2
52.234666;21.128406;2017-06-01 21:32:14;173;10
52.199517;21.051006;2017-06-01 21:32:16;159;3
52.211832;20.95468;2017-06-01 21:32:13;159;7
52.252134;21.065641;2017-06-01 21:32:15;173;011
52.247308;20.999179;2017-06-01 21:32:15;107;2
52.239855;21.050926;2017-06-01 21:32:17;146;3
52.105955;21.234875;2017-06-01 21:32:14;702;03
52.233101;21.117407;2017-06-01 21:32:18;131;211
52.224694;21.063243;2017-06-01 21:32:15;117;1
52.199575;20.914913;2017-06-01 21:32:13;167;9
52.18154;21.056208;2017-06-01 21:32:13;116;7
52.273534;20.924337;2017-06-01 21:32:13;116;15
52.229923;21.030905;2017-06-01 21:32:11;171;9
52.157984;20.986817;2017-06-01 21:32:09;148;1
52.103053;21.297262;2017-06-01 21:32:07;L20;1
52.108283;21.267968;2017-06-01 18:10:06;L20;02
52.099142;21.269599;2017-06-01 21:32:11;L22;1
52.275785;20.9383;2017-06-01 21:32:14;184;3
52.239036;20.944621;2017-06-01 21:32:11;171;6
52.228762;20.967885;2017-06-01 21:32:09;109;4
52.228346;20.915426;2017-06-01 21:32:10;105;12
52.236435;20.896649;2017-06-01 21:32:14;105;4
52.254534;20.973079;2017-06-01 21:32:17;180;11
52.207712;21.048125;2017-06-01 21:32:17;187;7
52.196502;20.924904;2017-06-01 21:32:11;187;10
52.179036;20.997745;2017-06-01 21:32:17;189;11
52.182014;21.055296;2017-06-01 21:32:15;116;6
52.266685;21.05893;2017-06-01 21:32:16;190;5
52.190521;20.861821;2017-06-01 21:32:15;401;7
52.228369;20.966949;2017-06-01 21:32:13;109;218
52.175633;20.944141;2017-06-01 21:32:11;141;5
52.232103;20.896931;2017-06-01 21:32:07;105;5
52.205199;20.916163;2017-06-01 21:32:08;189;1
52.22798;20.959166;2017-06-01 21:32:16;155;3
52.228013;20.956088;2017-06-01 21:32:14;190;14
52.212833;20.967427;2017-06-01 21:32:17;184;7
52.195194;20.909686;2017-06-01 21:32:11;719;2
52.238947;20.898804;2017-06-01 21:32:12;109;2
52.229331;20.977088;2017-06-01 21:32:10;105;10
52.260721;20.925028;2017-06-01 21:32:11;171;3
52.243108;21.020503;2017-06-01 21:32:17;105;1
52.228442;20.90629;2017-06-01 21:32:13;190;11
52.175273;20.944403;2017-06-01 21:20:42;Rezerwa R-2;C92
52.190399;20.862103;2017-06-01 21:32:17;401;6
52.276578;20.951293;2017-06-01 21:32:16;116;11
52.240333;21.013223;2017-06-01 21:32:10;105;8
52.262955;20.926542;2017-06-01 21:32:13;171;4
52.210541;20.982442;2017-06-01 21:32:15;136;5
52.208291;21.082958;2017-06-01 21:32:12;167;4
52.239022;20.89891;2017-06-01 21:32:13;109;11
52.173474;21.026381;2017-06-01 21:32:12;189;4
52.176816;21.007686;2017-06-01 21:32:13;401;4
52.24478;21.087393;2017-06-01 21:32:12;148;5
52.239473;20.916319;2017-06-01 21:32:09;171;5
52.284876;21.073539;2017-06-01 21:32:11;190;16
52.304469;21.082292;2017-06-01 21:32:06;112;019
52.228709;20.915559;2017-06-01 21:32:06;189;16
52.195798;20.897455;2017-06-01 21:32:14;401;8
52.196628;20.92464;2017-06-01 21:32:14;401;5
52.229416;21.003867;2017-06-01 21:32:06;109;7
52.225597;20.937384;2017-06-01 21:32:14;105;6
52.137329;20.899781;2017-06-01 21:32:06;706;212
52.233389;20.999005;2017-06-01 21:32:09;109;6
52.230005;21.022071;2017-06-01 21:32:07;180;9
51.9943818;20.9324321;2017-06-01 21:31:52;L-2;1
51.9816426;21.2176793;2017-06-01 21:32:15;L25;1
52.0798625;21.0213935;2017-06-01 21:32:19;L39;2
52.0567696;21.00819;2017-06-01 21:32:14;L-5;1
52.1193256;21.1057905;2017-04-24 07:45:36;L12;1
52.0781036;21.086783;2017-06-01 21:32:16;L24;1
52.083494;21.03435;2017-06-01 21:32:15;L19;1
51.987658;21.037539;2017-06-01 21:32:14;L17;1
52.291375;21.000565;2017-06-01 21:32:16;145;4
52.243052;21.012454;2017-06-01 21:32:13;175;4
52.242746;20.99514;2017-06-01 21:32:13;520;3
52.271977;20.944554;2017-06-01 21:32:13;114;8
52.296102;21.040906;2017-06-01 21:32:12;112;11
52.322399;21.057151;2017-06-01 21:32:09;527;4
52.240024;20.920971;2017-06-01 21:32:16;190;9
52.255187;21.036109;2017-06-01 21:32:11;527;5
52.253855;21.032864;2017-06-01 21:32:14;190;17
52.227403;20.951071;2017-06-01 21:32:14;105;3
52.307298;21.092152;2017-06-01 21:32:15;112;12
52.300076;21.04144;2017-06-01 21:32:12;114;011
52.277643;21.115362;2017-06-01 21:32:12;145;6
52.360877;21.111108;2017-06-01 21:32:11;140;4
52.290974;20.929493;2017-06-01 21:32:18;511;3
52.255238;21.011723;2017-06-01 21:32:12;185;11
52.300349;21.042669;2017-06-01 21:22:39;345;3
52.229998;21.012564;2017-06-01 21:32:17;175;2
52.253118;20.982122;2017-06-01 21:32:15;500;7
52.235586;21.058816;2017-06-01 21:32:09;111;9
52.190126;20.862603;2017-06-01 21:32:16;517;4
52.248999;20.995629;2017-06-01 21:32:13;111;6
52.238954;20.943777;2017-06-01 21:32:15;190;12
52.289928;20.931193;2017-06-01 21:32:12;114;9
52.312883;20.9171;2017-06-01 21:32:12;114;2
52.259463;21.005683;2017-06-01 21:32:11;735;52
52.259006;21.034299;2017-06-01 21:32:14;169;5
52.29193;21.020752;2017-06-01 21:32:14;112;2
52.228433;20.906908;2017-06-01 21:32:16;112;8
52.221905;21.102401;2017-06-01 21:32:14;509;2
52.388107;20.928711;2017-06-01 21:32:14;731;62
52.298322;20.994747;2017-06-01 21:32:17;509;13
52.266307;21.058561;2017-06-01 21:32:15;160;6
52.289661;20.97577;2017-06-01 21:32:15;185;60
52.318341;20.9466;2017-06-01 21:32:13;518;7
52.348684;20.942654;2017-06-01 21:32:12;511;2
52.292289;21.042723;2017-06-01 21:32:17;169;8
52.305075;21.085299;2017-06-01 21:32:17;190;1
52.237954;20.976907;2017-06-01 21:32:13;520;5
52.321846;20.971253;2017-06-01 21:32:15;723;66
52.222603;21.035473;2017-06-01 21:32:16;162;8
52.256108;21.029637;2017-06-01 21:32:00;509;7
52.279191;21.125376;2017-06-01 21:32:16;345;1
52.286545;21.083672;2017-06-01 21:32:17;345;2
52.276669;21.053003;2017-06-01 21:32:15;162;6
52.291278;21.00081;2017-06-01 21:32:13;731;65
52.292159;21.04803;2017-06-01 21:32:13;500;5
52.289593;20.99997;2017-06-01 21:32:11;112;10
52.156203;21.044726;2017-06-01 21:32:16;185;5
52.263716;21.038433;2017-06-01 21:32:16;169;7
52.225214;21.091802;2017-06-01 21:32:15;509;3
52.309399;21.061874;2017-06-01 21:32:15;527;3
52.232179;20.948707;2017-06-01 21:32:13;190;7
52.298724;20.935544;2017-06-01 21:32:16;114;3
52.328061;21.109194;2017-06-01 21:32:17;140;5
52.192352;21.083639;2017-06-01 21:32:15;162;2
52.300336;21.042021;2017-06-01 21:32:16;500;4
52.237567;21.001981;2017-06-01 21:32:16;105;2
52.273074;21.054262;2017-06-01 21:32:12;517;7
52.299902;21.04136;2017-06-01 21:32:08;500;3
52.25319;20.982512;2017-06-01 21:32:17;500;1
52.100713;21.046355;2017-06-01 21:32:13;L39;1
52.263828;21.047563;2017-06-01 21:32:09;190;216
52.286009;21.050175;2017-06-01 21:32:14;120;7
52.262285;21.015214;2017-06-01 21:32:11;227;4
52.289867;20.949868;2017-06-01 21:32:12;121;1
52.259934;21.02712;2017-06-01 21:32:09;338;1
52.266187;21.043596;2017-06-01 11:11:43;178;010
52.268421;20.985094;2017-06-01 21:32:17;122;5
52.260651;21.100941;2017-06-01 21:32:10;338;3
52.271665;20.967734;2017-06-01 21:32:15;132;3
52.317162;20.952653;2017-06-01 21:32:16;214;2
52.315455;21.050739;2017-06-01 21:32:14;132;1
52.264047;21.04831;2017-06-01 21:32:17;109;201
52.226894;21.023256;2017-06-01 21:32:11;166;2
52.274647;21.057547;2017-06-01 21:32:14;262;1
52.199437;21.046134;2017-06-01 21:32:16;107;4
52.322861;21.067633;2017-06-01 21:32:12;240;1
52.29603;21.014692;2017-06-01 21:32:09;126;1
52.300142;21.041863;2017-06-01 21:32:14;227;3
52.154703;21.050881;2017-06-01 21:32:13;166;8
52.27194;20.9687;2017-06-01 21:32:15;132;2
52.291702;21.006017;2017-06-01 21:32:14;214;4
52.193912;21.01459;2017-06-01 21:32:16;174;5
52.325257;20.948159;2017-06-01 21:32:15;126;2
52.305456;21.051703;2017-06-01 21:32:10;214;1
52.170151;20.995257;2017-06-01 21:32:11;174;2
52.273832;20.982133;2017-06-01 21:32:13;122;013
52.252558;21.051067;2017-06-01 21:32:14;120;2
52.290801;20.928277;2017-06-01 21:32:13;156;1
52.34802;21.054725;2017-06-01 21:32:14;134;2
52.324531;21.074956;2017-06-01 21:32:13;120;6
52.263624;21.047802;2017-06-01 21:32:11;132;010
52.291219;21.000571;2017-06-01 21:32:08;240;3
52.324712;21.053505;2017-06-01 21:32:14;132;012
52.259626;21.027375;2017-06-01 21:32:15;166;243
52.289656;20.975726;2017-06-01 21:32:14;197;6
52.259156;20.936194;2017-06-01 21:32:13;197;4
52.36155;21.046745;2017-06-01 21:32:09;120;5
52.245678;20.93934;2017-06-01 21:31:54;197;8
52.427567;21.031562;2017-06-01 21:32:14;734;1
52.301879;21.05691;2017-06-01 21:32:15;126;05
52.223873;20.932091;2017-06-01 21:32:13;197;9
52.259452;20.994278;2017-06-01 21:32:17;221;2
52.3033;20.938021;2017-06-01 21:32:12;303;2
52.229456;21.002963;2017-06-01 21:32:15;227;1
52.25299;21.052174;2017-06-01 21:32:15;156;4
52.252584;21.05131;2017-06-01 21:32:12;120;1
52.228036;20.956037;2017-06-01 21:32:09;105;9
52.238905;20.898889;2017-06-01 21:32:15;190;10
52.205427;20.917101;2017-06-01 21:32:10;191;6
52.199316;21.023751;2017-06-01 21:32:08;172;5
52.20776;20.963683;2017-06-01 21:32:11;128;4
52.20808;20.964031;2017-06-01 21:32:08;184;8
52.236688;20.948168;2017-06-01 21:32:10;184;6
52.254648;20.997573;2017-06-01 21:32:10;116;61
52.154448;20.920756;2017-06-01 21:32:17;728;064
52.293563;21.033;2017-06-01 21:32:17;112;1
52.183525;20.870383;2017-06-01 21:32:12;191;4
52.240063;21.016622;2017-06-01 21:32:14;116;8
52.178215;21.048308;2017-06-01 21:32:11;187;5
52.228182;20.956841;2017-06-01 21:32:15;155;2
52.23872;20.898866;2017-06-01 21:32:14;189;15
52.256776;20.756613;2017-06-01 21:32:10;719;1
52.265129;20.930026;2017-06-01 21:32:15;112;4
52.240116;20.934664;2017-06-01 21:32:17;190;13
52.273056;20.925028;2017-06-01 21:32:17;116;14
52.215402;20.882688;2017-06-01 21:32:11;112;6
52.221223;20.921688;2017-06-01 21:32:17;105;11
52.229751;21.004678;2017-06-01 21:32:15;171;10
52.243061;21.012997;2017-06-01 21:32:10;128;8
52.234085;20.925841;2017-06-01 21:32:08;155;4
52.184303;21.053038;2017-06-01 21:32:13;172;1
52.216036;20.962244;2017-06-01 21:32:18;191;7
52.214712;20.882959;2017-06-01 21:32:13;112;7
52.217143;21.001229;2017-06-01 21:32:16;167;013
52.202454;20.914973;2017-06-01 21:32:14;189;13
52.270509;21.046886;2017-06-01 21:32:16;160;4
52.296005;21.014762;2017-06-01 21:32:13;145;5
52.264916;21.046437;2017-06-01 17:01:54;E-7;02
52.254354;21.035295;2017-06-01 21:32:15;509;14
52.252789;21.051593;2017-06-01 21:32:11;738;4
52.23301;21.002631;2017-06-01 21:32:16;518;5
52.259746;21.046433;2017-06-01 21:32:11;190;6
52.231493;20.915169;2017-06-01 21:32:15;112;5
52.291266;21.000792;2017-06-01 21:32:14;723;08
52.409762;21.203212;2017-06-01 21:32:11;738;52
52.260301;21.047441;2017-06-01 21:32:15;512;2
52.293528;21.013919;2017-06-01 21:32:09;114;7
52.304536;21.082446;2017-06-01 21:32:09;112;13
52.284426;21.073129;2017-06-01 21:32:16;140;08
52.244442;20.979345;2017-06-01 21:32:10;527;7
52.300225;21.041864;2017-06-01 21:32:17;114;6
52.269351;20.954211;2017-06-01 21:32:13;114;4
52.288096;20.996641;2017-06-01 21:32:10;112;018
52.316977;20.961214;2017-06-01 21:32:08;518;9
52.248292;21.01961;2017-06-01 21:32:13;527;1
52.22846;21.032339;2017-06-01 21:32:10;162;3
52.278153;21.068285;2017-06-01 21:32:15;738;3
52.389016;21.031659;2017-06-01 21:32:13;705;2
52.320016;21.10243;2017-06-01 21:32:11;738;06
52.285329;21.062467;2017-06-01 21:32:11;512;4
52.269151;21.037911;2017-06-01 21:32:09;500;2
52.246513;21.011581;2017-06-01 21:32:08;527;6
52.319976;21.066624;2017-06-01 21:32:10;240;06
52.268594;20.986827;2017-06-01 21:32:10;518;344
52.291886;21.047118;2017-06-01 21:32:17;112;15
52.290383;21.04976;2017-06-01 21:32:09;169;2
52.275669;20.971282;2017-06-01 21:32:11;112;3
52.287783;21.028508;2017-06-01 21:32:17;114;5
52.344323;21.028448;2017-06-01 21:32:17;705;04
52.334426;20.942268;2017-06-01 21:32:17;509;11
52.262559;21.044449;2017-06-01 21:32:14;303;3
52.229621;21.001082;2017-06-01 21:32:14;518;2
52.260922;20.498964;2017-06-01 14:04:38;L29;1
52.257564;20.580533;2017-06-01 21:32:14;L29;1
52.246065;21.069183;2017-06-01 21:32:15;125;2
52.241211;21.136272;2017-06-01 21:32:16;402;014
52.212663;21.166113;2017-06-01 21:32:10;125;1
52.236672;21.109406;2017-06-01 21:32:14;158;6
52.218157;21.020948;2017-06-01 21:32:10;143;2
52.218152;21.019634;2017-06-01 21:32:16;143;012
52.236186;21.129971;2017-06-01 21:32:15;520;13
52.22081;21.015633;2017-06-01 21:32:08;151;1
52.184177;20.952777;2017-06-01 21:32:16;141;4
52.24167;21.071897;2017-06-01 21:32:09;158;1
52.233293;21.126671;2017-06-01 21:32:15;185;1
52.211685;20.988614;2017-06-01 21:32:16;128;1
52.222771;21.102229;2017-06-01 21:32:13;507;214
52.287108;20.977244;2017-06-01 21:32:11;122;4
52.231758;21.02056;2017-06-01 21:32:16;128;10
52.22509;20.930845;2017-06-01 21:32:13;716;1
52.202089;21.049552;2017-06-01 21:32:16;159;5
52.237728;21.050638;2017-06-01 21:32:14;102;4
52.189549;20.85087;2017-06-01 21:32:11;716;2
52.246959;20.930094;2017-06-01 21:32:15;184;2
52.179786;21.024311;2017-06-01 21:32:11;217;3
52.183504;20.979385;2017-06-01 21:32:16;401;9
52.139389;21.056373;2017-06-01 21:32:15;504;6
52.110908;21.018675;2017-06-01 21:32:16;709;1
52.200108;20.979375;2017-06-01 21:32:14;172;2
52.185651;20.972079;2017-06-01 21:32:13;189;2
52.218205;21.020309;2017-06-01 21:32:16;182;1
52.124878;21.102367;2017-06-01 21:32:16;519;2
52.179934;21.024464;2017-06-01 21:32:16;709;8
52.108363;21.018404;2017-06-01 21:32:10;727;3
52.23672;21.109783;2017-06-01 21:32:14;141;9
52.219649;20.989846;2017-06-01 21:32:12;175;5
52.225007;20.990751;2017-06-01 21:32:15;504;3
52.212074;20.955406;2017-06-01 21:32:17;172;4
52.220959;21.024864;2017-06-01 21:32:15;116;69
52.270634;20.978299;2017-06-01 21:32:15;116;16
52.229003;21.002024;2017-06-01 21:32:10;501;5
52.179887;21.022914;2017-06-01 21:32:15;217;1
52.170168;20.995361;2017-06-01 21:32:14;138;1
52.197894;20.983445;2017-06-01 21:32:11;504;220
52.19272;20.995733;2017-06-01 21:32:12;222;5
52.088777;21.019296;2017-06-01 21:32:17;727;05
52.20516;21.032213;2017-06-01 21:32:12;501;3
52.228765;21.001703;2017-06-01 21:32:14;131;9
52.129919;21.067097;2017-06-01 21:32:13;504;8
52.079657;21.031841;2017-06-01 21:32:11;709;2
52.217282;20.963668;2017-06-01 21:32:13;517;5
52.179191;21.023413;2017-06-01 21:32:10;192;206
52.237751;21.144884;2017-06-01 21:32:14;402;1
52.233462;21.038738;2017-06-01 21:32:16;166;012
52.181336;21.069037;2017-06-01 21:32:12;131;2
52.0746;21.017567;2017-06-01 21:32:16;709;4
52.181881;21.055558;2017-06-01 21:32:17;522;1
52.157253;21.078586;2017-06-01 21:32:15;217;2
52.19801;20.921018;2017-06-01 21:32:16;189;12
52.218028;20.972508;2017-06-01 21:32:17;172;012
52.167832;21.043684;2017-06-01 21:32:13;148;7
52.185714;20.954411;2017-06-01 21:32:15;317;5
52.17938;20.978049;2017-06-01 21:32:17;175;08
52.179903;21.024095;2017-06-01 21:32:15;710;6
52.171268;21.04036;2017-06-01 21:32:16;317;3
52.262247;20.992402;2017-06-01 21:32:16;116;10
52.198408;20.871111;2017-06-01 21:32:17;517;3
52.211972;21.019522;2017-06-01 21:32:15;519;1
52.23689;21.052528;2017-06-01 21:31:45;138;2
52.188905;21.003213;2017-06-01 21:32:17;Z-1;2
52.179299;21.022856;2017-06-01 21:32:09;501;2
52.067027;21.017632;2017-06-01 21:32:14;709;3
52.20691;21.03266;2017-06-01 21:32:13;167;6
52.146647;21.053256;2017-06-01 21:32:14;136;2
52.169552;20.978149;2017-06-01 21:32:17;175;6
52.221993;21.102016;2017-06-01 21:32:14;509;4
52.284985;20.970722;2017-06-01 21:32:10;185;9
52.227599;20.95275;2017-06-01 21:32:17;171;14
52.232958;21.122974;2017-06-01 21:32:13;507;3
52.229427;21.005388;2017-06-01 21:32:14;507;7
52.234595;21.034804;2017-06-01 21:32:14;507;5
52.21036;20.949561;2017-06-01 21:32:13;187;2
52.246933;20.911699;2017-06-01 21:32:14;523;9
52.244544;21.085289;2017-06-01 21:32:16;523;1
52.225686;21.050641;2017-06-01 21:32:10;514;2
52.242673;21.101122;2017-06-01 21:32:15;521;3
52.199088;21.000858;2017-06-01 21:32:16;138;012
52.224932;21.047322;2017-06-01 21:32:04;525;7
52.229664;21.005317;2017-06-01 21:32:14;507;6
52.24032;21.155677;2017-06-01 21:32:14;520;10
52.233324;21.109128;2017-06-01 21:32:15;525;65
52.159501;21.052286;2017-06-01 21:32:13;148;2
52.256934;21.177205;2017-06-01 21:32:14;143;6
52.241456;21.106741;2017-06-01 21:32:18;125;5
52.229907;21.068448;2017-06-01 21:32:17;520;2
52.260773;21.151525;2017-06-01 21:32:12;143;7
52.216753;20.961449;2017-06-01 21:32:16;182;7
52.2193;21.015641;2017-06-01 21:32:15;514;1
52.216085;20.985202;2017-06-01 21:32:14;523;3
52.243543;21.095865;2017-06-01 21:32:13;141;10
52.2107;21.027642;2017-06-01 21:32:13;116;3
52.248576;20.993475;2017-06-01 21:32:14;111;7
52.192284;21.057089;2017-06-01 21:32:13;180;58
52.225455;21.089675;2017-06-01 21:32:15;507;4
52.225586;21.092994;2017-06-01 21:32:14;509;5
52.229268;21.002874;2017-06-01 21:32:15;525;319
52.206898;21.18419;2017-06-01 21:32:15;525;63
52.2413;21.107632;2017-06-01 21:32:10;704;2
52.219036;21.045506;2017-06-01 21:32:17;185;6
52.291408;21.000393;2017-06-01 21:32:06;145;3
52.16797;21.083865;2017-06-01 21:32:16;116;4
52.334638;20.942288;2017-06-01 21:32:17;509;10
52.260655;21.100527;2017-06-01 21:32:04;138;3
52.249655;21.242682;2017-06-01 21:32:05;514;3
52.269562;20.982827;2017-06-01 21:32:11;518;6
52.240387;21.133962;2017-06-01 21:32:18;145;7
52.244735;21.088275;2017-06-01 21:32:07;145;10
52.220203;21.028741;2017-06-01 21:32:08;187;3
52.241513;21.041267;2017-06-01 21:32:03;125;4
52.240147;20.934422;2017-06-01 21:32:09;109;3
52.292234;21.059374;2017-06-01 21:32:09;145;2
52.212163;21.019652;2017-06-01 21:32:07;131;12
52.234098;21.117193;2017-06-01 16:26:50;182;011
52.244507;21.134123;2017-06-01 21:32:17;145;1
52.237395;21.143463;2017-06-01 21:32:17;520;11
52.23769;21.050365;2017-06-01 21:32:13;111;4
52.318169;20.952967;2017-06-01 21:32:09;509;8
52.193257;20.981864;2017-06-01 21:32:15;141;013
52.207578;21.04825;2017-06-01 21:32:13;141;7
52.219559;20.971969;2017-06-01 21:32:13;182;8
52.238566;21.055572;2017-06-01 21:32:14;507;1
52.241557;21.106357;2017-06-01 21:32:13;143;4
52.236605;21.017892;2017-06-01 21:32:14;116;2
52.230931;21.082335;2017-06-01 21:32:16;151;3
52.272279;20.924984;2017-06-01 21:32:18;116;13
52.191098;21.047566;2017-06-01 21:32:14;402;4
52.178937;20.998342;2017-06-01 21:32:13;402;6
52.232917;20.998723;2017-06-01 21:32:13;171;13
52.167955;21.084032;2017-06-01 21:32:11;180;7
52.220545;21.015827;2017-06-01 21:32:13;131;6
52.22304;21.04402;2017-06-01 21:32:14;171;12
52.15936;21.204695;2017-06-01 21:32:11;521;4
52.23725;20.964259;2017-06-01 21:32:09;520;4
52.300449;21.041708;2017-06-01 21:32:01;169;10
52.304854;21.085396;2017-06-01 21:32:11;190;2
52.404739;20.91577;2017-06-01 21:32:09;723;63
52.265628;21.058017;2017-06-01 21:32:08;162;7
52.253001;21.049919;2017-06-01 21:32:12;140;6
52.289002;21.072381;2017-06-01 21:32:12;512;1
52.261928;21.05117;2017-06-01 21:32:08;160;2
52.280883;21.07026;2017-06-01 21:32:11;527;2
52.41252;20.938114;2017-06-01 21:32:10;731;61
52.245078;21.048278;2017-06-01 21:32:16;517;6
52.305834;20.949472;2017-06-01 21:32:10;511;1
52.350525;20.945984;2017-06-01 21:32:13;731;64
52.263374;21.020614;2017-06-01 21:32:14;500;6
52.169815;20.99619;2017-06-01 21:32:06;193;5
52.183662;21.058835;2017-06-01 21:32:14;189;5
52.153878;21.038342;2017-06-01 21:32:18;193;1
52.201543;21.035792;2017-06-01 21:32:09;522;318
52.229425;21.002743;2017-06-01 21:32:05;501;4
52.23974;20.896552;2017-06-01 21:32:10;189;14
52.17474;21.06299;2017-06-01 21:32:12;116;5
52.15404;21.037377;2017-06-01 21:32:14;401;3
52.24469;21.005032;2017-06-01 21:32:15;222;2
52.243207;20.966065;2017-06-01 21:32:05;136;6
52.260885;21.074722;2017-06-01 21:32:15;138;4
52.186491;20.998111;2017-06-01 16:31:57;222;5
52.188988;21.00212;2017-06-01 21:32:17;709;9
52.171868;21.066553;2017-06-01 21:32:15;519;7
52.188853;21.001173;2017-06-01 21:32:13;222;4
52.17784;21.049082;2017-06-01 21:32:12;189;9
52.175412;20.943422;2017-06-01 21:32:10;733;54
52.104877;21.113618;2017-06-01 21:32:17;742;1
52.236553;21.018147;2017-06-01 21:32:06;222;3
52.17929;21.023113;2017-06-01 21:32:18;189;8
52.180617;20.985787;2017-06-01 21:32:08;Z-1;3
52.176832;20.995825;2017-06-01 21:32:12;317;1
52.076922;21.026082;2017-06-01 21:32:09;710;1
52.216522;20.995373;2017-06-01 21:32:18;182;6
52.206425;21.022292;2017-06-01 21:32:11;222;6
52.077605;21.115763;2017-06-01 21:32:05;710;3
52.327772;20.940725;2017-06-01 21:32:16;509;9
52.208245;21.196595;2017-06-01 21:32:02;525;4
52.220787;21.045242;2017-06-01 21:32:12;141;2
52.202742;21.06461;2017-06-01 21:32:07;148;4
52.20656;21.038802;2017-06-01 21:32:11;131;5
52.241952;21.070618;2017-06-01 21:32:17;521;1
52.222405;21.037185;2017-06-01 21:32:13;525;2
52.234139;21.117513;2017-06-01 15:48:33;158;4
52.258447;20.898267;2017-06-01 21:32:03;523;8
52.238055;21.100625;2017-06-01 21:32:16;182;5
52.207823;20.963882;2017-06-01 21:32:03;521;2
52.2116;20.94927;2017-06-01 21:32:04;158;3
52.195215;21.003983;2017-06-01 21:32:14;141;3
52.162083;20.928777;2017-06-01 21:32:16;721;62
52.189515;21.020332;2017-06-01 21:32:18;Z-1;4
52.260935;21.163898;2017-06-01 21:32:07;143;5
52.150125;21.033758;2017-06-01 21:32:12;504;9
52.176365;21.02128;2017-06-01 21:32:14;709;10
52.229135;21.002667;2017-06-01 21:32:17;519;4
52.187261;20.995801;2017-06-01 13:57:59;742;02
52.20942;21.086053;2017-06-01 21:32:07;168;4
52.156577;20.951386;2017-06-01 21:32:06;124;3
52.21655;20.962511;2017-06-01 21:32:13;184;1
52.20477;20.974999;2017-06-01 21:32:13;128;5
52.216778;20.898915;2017-06-01 21:32:14;713;2
52.195934;20.896547;2017-06-01 21:32:16;191;5
52.290781;20.928099;2017-06-01 21:32:14;184;4
52.171586;21.005064;2017-06-01 21:32:12;174;1
52.211858;20.954958;2017-06-01 21:32:11;159;1
52.214525;20.979747;2017-06-01 21:32:09;191;9
52.179439;21.0225;2017-06-01 21:32:15;724;1
52.238411;21.017478;2017-06-01 21:32:12;102;1
52.203277;20.974882;2017-06-01 21:32:09;128;2
52.274992;20.938109;2017-06-01 21:32:12;184;5
52.200241;21.055109;2017-06-01 21:32:16;168;3
52.169788;20.996483;2017-06-01 21:32:10;174;4
52.218078;20.983905;2017-06-01 21:32:18;191;8
52.191002;20.861982;2017-06-01 21:32:13;187;12
52.209048;20.948175;2017-06-01 21:32:16;191;2
52.210747;20.783087;2017-06-01 21:32:15;713;1
52.197128;20.922174;2017-06-01 17:29:30;105;021
52.224987;20.930771;2017-06-01 21:32:13;713;3
52.235659;20.939584;2017-06-01 21:32:17;167;1
52.236261;21.112944;2017-06-01 21:32:14;182;3
52.229296;21.002365;2017-06-01 21:32:13;522;3
52.214826;20.97999;2017-06-01 21:32:14;167;7
52.171748;21.05894;2017-06-01 21:32:11;710;4
52.207196;21.029053;2017-06-01 21:32:16;167;2
52.157096;21.078335;2017-06-01 21:32:17;522;6
52.183669;21.001816;2017-06-01 21:32:14;Z-1;05
52.181492;21.068858;2017-06-01 21:32:16;131;3
52.235515;21.092267;2017-06-01 21:32:12;182;2
52.129483;21.0179;2017-06-01 21:32:12;709;6
52.181412;21.069074;2017-06-01 21:32:15;172;9
52.202996;21.067732;2017-06-01 21:32:13;402;9
52.224078;21.097675;2017-06-01 21:32:13;148;6
52.233198;21.110396;2017-06-01 21:32:15;514;4
52.216848;21.015317;2017-06-01 21:32:15;520;014
52.228386;20.956756;2017-06-01 21:32:13;523;4
52.239474;20.940789;2017-06-01 21:32:10;109;10
52.205105;21.04909;2017-06-01 21:32:16;131;1
52.234774;21.085742;2017-06-01 21:32:17;151;2
52.216597;21.311862;2017-06-01 21:32:12;704;1
52.217531;21.018052;2017-06-01 21:32:14;520;7
52.23495;21.097522;2017-06-01 21:32:12;520;8
52.241485;21.050106;2017-06-01 21:32:10;509;6
52.224221;20.988555;2017-06-01 21:32:17;158;2
52.161187;21.21112;2017-06-01 21:32:13;521;5
52.242291;21.102047;2017-06-01 21:32:11;143;8
52.227382;20.999679;2017-06-01 21:32:14;158;4
52.236449;21.1128;2017-06-01 21:32:13;158;5
52.252097;20.913958;2017-06-01 21:31:50;171;2
52.145678;21.037583;2017-06-01 21:32:15;185;4
52.18784;21.062872;2017-06-01 21:32:14;185;2
52.176228;20.995412;2017-06-01 21:32:12;402;8
52.111897;21.018336;2017-06-01 21:32:15;709;5
52.229028;21.051882;2017-06-01 21:32:15;138;6
52.15077;21.035781;2017-06-01 21:32:10;136;10
52.170217;21.067707;2017-06-01 21:32:14;519;6
52.188354;21.002291;2017-06-01 21:32:14;136;9
52.216869;21.005406;2017-06-01 21:32:15;174;09
52.225342;21.014262;2017-06-01 21:32:11;522;2
52.195112;21.002089;2017-06-01 21:32:15;138;7
52.169404;20.977939;2017-06-01 21:32:12;148;9
52.218246;21.015469;2017-06-01 21:32:11;519;3
52.234005;20.926439;2017-06-01 21:32:10;167;8
52.173698;21.018011;2017-06-01 21:32:18;193;6
52.198425;21.038671;2017-06-01 21:32:15;501;1
52.187797;21.049664;2017-06-01 21:32:13;172;6
52.183278;20.998077;2017-06-01 21:32:15;193;2
52.229398;21.004129;2017-06-01 21:32:09;131;7
52.33459;20.942119;2017-06-01 21:32:13;518;246
52.183195;20.989476;2017-06-01 21:32:17;218;3
52.195938;20.929402;2017-06-01 21:32:13;124;1
52.196438;20.865677;2017-06-01 21:32:16;716;3
52.248802;21.074509;2017-06-01 21:32:14;102;2
52.241987;21.01539;2017-06-01 21:32:14;128;7
52.242917;21.013059;2017-06-01 21:32:15;128;9
52.195377;20.898595;2017-06-01 21:32:12;191;3
52.225507;20.991121;2017-06-01 21:32:13;128;6
52.303875;20.985271;2017-06-01 21:32:16;211;1
52.293473;21.03105;2017-06-01 21:32:12;204;3
52.208885;20.895468;2017-06-01 21:32:18;206;1
52.20599;20.885107;2017-06-01 21:32:16;177;2
52.25692;21.17729;2017-06-01 21:32:11;196;2
52.303528;20.981255;2017-06-01 21:32:18;211;2
52.317364;21.059097;2017-06-01 21:32:16;204;1
52.175411;20.94388;2017-06-01 21:32:15;177;3
52.331543;20.956873;2017-06-01 21:32:13;211;5
52.340067;20.939178;2017-06-01 21:32:15;211;3
52.355453;20.939795;2017-06-01 21:32:11;211;4
52.167217;21.084805;2017-06-01 21:32:18;163;2
52.18684;20.896446;2017-06-01 21:32:14;177;1
52.183338;20.870493;2017-06-01 21:32:12;207;3
52.256927;21.115074;2017-06-01 21:32:13;245;1
52.317036;20.952421;2017-06-01 21:32:14;133;3
52.172192;21.107401;2017-06-01 21:32:16;163;71
52.214397;21.116486;2017-06-01 21:32:16;219;2
52.277252;21.023129;2017-06-01 21:32:18;204;2
52.222851;21.102264;2017-06-01 21:32:03;219;1
52.1889;20.904989;2017-06-01 21:32:16;207;2
52.355556;20.982328;2017-06-01 21:32:14;133;2
52.076252;20.966534;2017-06-01 21:32:16;737;1
52.184238;21.169741;2017-06-01 21:32:17;219;3
52.256863;21.176329;2017-06-01 21:32:10;196;1
52.195812;20.886816;2017-06-01 21:32:12;207;1
52.351635;20.981205;2017-06-01 21:32:16;176;3
52.282692;20.987951;2017-06-01 21:32:12;118;8
52.236;20.990004;2017-06-01 21:32:15;157;2
52.267918;20.947365;2017-06-01 21:32:16;103;4
52.29118;21.000904;2017-06-01 21:32:16;516;3
52.294979;20.945337;2017-06-01 21:32:13;103;7
52.230038;21.026806;2017-06-01 21:32:12;118;7
52.219097;21.015606;2017-06-01 21:32:14;118;6
52.222855;20.98666;2017-06-01 21:32:15;157;6
52.221432;20.964663;2017-06-01 21:32:16;103;2
52.233551;20.96829;2017-06-01 21:32:14;103;3
52.251923;20.964594;2017-06-01 21:32:04;103;1
52.207836;20.968561;2017-06-01 21:32:14;157;3
52.252438;21.014643;2017-06-01 21:32:15;118;4
52.334049;20.942022;2017-06-01 21:32:12;516;1
52.300358;21.041349;2017-06-01 21:32:15;118;2
52.259914;21.027288;2017-06-01 21:32:16;176;2
52.256912;21.177073;2017-06-01 21:32:14;153;2
52.272633;20.983147;2017-06-01 21:32:16;157;8
52.268131;20.987051;2017-06-01 21:32:16;157;1
52.29026;20.926912;2017-06-01 21:32:16;103;5
52.289917;20.976315;2017-06-01 21:32:17;157;10
52.256882;21.177246;2017-06-01 21:32:16;153;3
52.283264;21.171894;2017-06-01 21:32:13;153;1
52.241081;20.986029;2017-06-01 21:32:17;157;7
52.324265;20.959789;2017-06-01 21:32:17;516;4
52.334202;20.942047;2017-06-01 21:32:12;516;5
52.274975;21.030918;2017-06-01 21:32:11;176;1
52.209885;20.919712;2017-06-01 21:32:18;127;1
52.249157;21.005524;2017-06-01 21:32:17;503;10
52.241737;21.124968;2017-06-01 21:32:17;188;6
52.20887;20.895563;2017-06-01 21:32:14;127;4
52.239536;21.026899;2017-06-01 21:32:16;127;6
52.222603;20.98683;2017-06-01 21:32:15;127;8
52.219498;21.025312;2017-06-01 21:32:14;411;57
52.307903;20.767399;2017-06-01 21:32:14;708;3
52.179466;20.978411;2017-06-01 21:32:16;188;2
52.14517;21.04358;2017-06-01 21:32:13;503;2
52.164104;21.036251;2017-06-01 21:32:12;503;5
52.254753;21.002375;2017-06-01 21:32:17;503;9
52.169544;20.978304;2017-06-01 21:32:16;188;07
52.214283;21.026554;2017-06-01 21:32:14;503;6
52.142715;21.045969;2017-06-01 21:32:15;503;4
52.212521;21.026676;2017-06-01 21:32:18;503;11
52.220146;20.9713;2017-06-01 21:32:13;127;09
52.228298;21.061998;2017-06-01 21:32:12;411;52
52.246319;21.019474;2017-06-01 21:32:18;127;7
52.242462;21.123764;2017-06-01 21:32:17;188;08
52.300186;20.786394;2017-06-01 21:32:17;708;2
52.283802;20.904161;2017-06-01 21:32:17;708;4
52.232872;21.122004;2017-06-01 21:32:14;502;064
52.281384;20.923546;2017-06-01 21:32:18;708;1
52.203747;20.985495;2017-06-01 21:32:11;188;5
52.22366;21.041185;2017-06-01 21:32:16;188;1
52.228191;21.140755;2017-06-01 21:32:17;502;063
52.233753;21.01922;2017-06-01 21:32:12;503;7
52.223347;21.236114;2017-06-01 21:32:11;411;51
52.218945;21.015377;2017-06-01 21:32:12;502;335
52.291012;20.92823;2017-06-01 21:32:14;708;5
52.201881;21.035433;2017-06-01 21:32:11;503;12
52.2910795;20.9283856;2017-06-01 21:32:16;203;2
52.184063;21.0594478;2017-06-01 21:32:17;164;2
52.1905308;21.0821615;2017-06-01 21:32:17;164;3
52.1609616;21.0279116;2017-06-01 21:32:19;209;04
52.2720731;21.0424613;2017-06-01 21:32:15;212;1
52.210325;20.9756478;2017-06-01 21:32:17;208;2
52.2771795;20.9704543;2017-06-01 21:32:18;205;1
52.1458715;21.1381886;2017-06-01 21:32:16;164;61
52.2744613;21.0582033;2017-06-01 21:32:16;212;3
52.2769115;20.92274;2017-06-01 21:32:17;203;1
52.33223;20.9439;2017-06-01 21:32:18;741;1
52.2159033;20.9605958;2017-06-01 21:32:16;208;1
52.1868945;21.2245806;2017-06-01 21:32:15;161;1
52.272021;21.0459576;2017-06-01 21:32:17;212;2
52.2608171;20.925153;2017-06-01 21:32:17;201;2
52.1700746;21.202267;2017-06-01 21:32:18;161;2
52.2458153;20.9393543;2017-06-01 21:32:15;201;1
52.1093271;20.9968546;2017-06-01 21:32:17;209;03
52.2594498;20.9809676;2017-06-01 21:32:16;205;2
52.2578286;20.9321586;2017-06-01 21:32:16;201;3
52.12105;21.09366;2017-06-01 21:32:15;725;1
51.960751;21.13205;2017-04-26 08:42:15;L30;1
52.024803;21.124716;2017-04-26 08:42:05;L28;1
